F:\WorkSpace\WSG_MYSQL_Service\src\edu\albany\wsg\filter\URLFilter.java
F:\WorkSpace\WSG_MYSQL_Service\src\edu\albany\wsg\mysql\utility\CustomResponse.java
F:\WorkSpace\WSG_MYSQL_Service\src\edu\albany\wsg\mysql\dao\keyValue.java
F:\WorkSpace\WSG_MYSQL_Service\src\edu\albany\wsg\mysql\utility\ResponseStatus.java
F:\WorkSpace\WSG_MYSQL_Service\src\edu\albany\wsg\mysql\controller\IndexController.java
F:\WorkSpace\WSG_MYSQL_Service\src\edu\albany\wsg\mysql\dao\requestFormat.java
F:\WorkSpace\WSG_MYSQL_Service\src\edu\albany\wsg\mysql\utility\DatabaseUtils.java
F:\WorkSpace\WSG_MYSQL_Service\src\edu\albany\wsg\mysql\utility\ResponseUtil.java
F:\WorkSpace\WSG_MYSQL_Service\src\edu\albany\wsg\mysql\service\SqlService.java
F:\WorkSpace\WSG_MYSQL_Service\src\edu\albany\wsg\mysql\utility\CustomerResponse.java
